Name of Song,Type of Dance,BPM Median, BPM Most Common, BPM Second Most Common
02  Maroon 5 - Makes Me Wonder.mp3.wav,chachacha,113.99633406965266,114.0,57.0
03-paparazzi-wwwtodohitcom.mp3.wav,chachacha,57.507646347535385,57.0,58.0
circus.mp3.wav,chachacha,57.486281682780245,57.0,153.0
Despacito (Luis Fonsi and Daddy Yankee feat. Justin Beiber).mp3.wav,chachacha,175.1097292842445,178.0,89.0
I Need To Know.mp3.wav,chachacha,84.36619555009334,58.0,115.0
Jennifer Lopez - Carino.mp3.wav,chachacha,115.71121889162757,116.0,66.0
Jessica Jay - Chilly Cha Cha.mp3.wav,chachacha,64.96236976725501,0.0,65.0
Just One Look.mp3.wav,chachacha,164.97303870702248,218.0,108.0
Let’s Get Loud (Jennifer Lopez).mp3.wav,chachacha,131.0726830586328,131.0,132.0
Michael Buble 'Save the last dance for me'.mp3.wav,chachacha,84.80973753125875,67.0,179.0
rocktheboat.mp3.wav,chachacha,107.58164909738753,54.0,214.0
Sway (Micheal Buble).mp3.wav,chachacha,103.4755010906168,103.0,205.0
Tito Rodriguez - The Magnificent Seven.mp3.wav,chachacha,89.09309073990181,66.0,132.0
Ursula 1000 - Got cha.mp3.wav,chachacha,65.00066997186119,65.0,173.0
What Makes You Beautiful (One Direction).mp3.wav,chachacha,91.99755800222351,63.0,125.0
''Cheek to Cheek'' - Ella Fitzgerald (1960).mp3.wav,foxtrot_blues,132.9162480591835,139.0,70.0
01 - Better Together.mp3.wav,foxtrot_blues,110.0882037006218,110.0,111.0
05 Ray Charles - Fever (with natalie cole).mp3.wav,foxtrot_blues,104.02876463608159,70.0,219.0
allidoisdreamofyou.mp3.wav,foxtrot_blues,119.90607234077613,120.0,60.0
baby-its-cold-outsidedino.mp3.wav,foxtrot_blues,74.94206704773676,65.0,66.0
beminedavidgrey.mp3.wav,foxtrot_blues,129.73594594112717,132.0,131.0
Beyond the Sea (Bobby Darin).mp3.wav,foxtrot_blues,129.17857586678264,131.0,132.0
Come Dance With Me (Frank Sinatra - with Lyrics).mp3.wav,foxtrot_blues,94.46196985629162,219.0,54.0
Dean Martin BABY O Original Version.mp3.wav,foxtrot_blues,93.22423480383323,63.0,93.0
Dream Come True (Frozen Ghost).mp3.wav,foxtrot_blues,105.92782379572883,66.0,132.0
Ella Fitzgerald - 'Deed I Do.mp3.wav,foxtrot_blues,115.18734862516028,219.0,59.0
Frank Sinatra - Come Fly With Me.mp3.wav,foxtrot_blues,107.16337020073341,220.0,219.0
Frank_Sinatra_-__Fly_Me_to_the_Moon.mp3.wav,foxtrot_blues,118.00240385881332,220.0,118.0
Miley Cyrus - Adore You (192  kbps).mp3.wav,foxtrot_blues,119.51612108470346,120.0,119.0
Peggy Lee - Fever.mp3.wav,foxtrot_blues,81.55773994328563,45.0,68.0
01-stevie-wonder-isnt-she-lovely.mp3.wav,jive,118.10774399844178,118.0,119.0
09 - (I Get The) Sweetest Feeling - Jackie Wilson.mp3.wav,jive,123.48748408994484,125.0,72.0
09 How Sweet It Is (To Be Loved By You).mp3.wav,jive,214.8551687483391,215.0,218.0
candyman.mp3.wav,jive,86.4161609443844,43.0,173.0
cant_buy_me_love.mp3.wav,jive,108.53492612001698,109.0,113.0
crazylittlethingcalledlove.mp3.wav,jive,152.7777859270888,154.0,155.0
dont_stop_me_now.mp3.wav,jive,158.37414299706168,156.0,157.0
Footloose.mp3.wav,jive,158.07138357265438,87.0,174.0
hit_the_road_jack.mp3.wav,jive,171.33673973957477,171.0,219.0
im_a_believer.mp3.wav,jive,158.45001415412756,160.0,81.0
Meghan Trainor - Dear Future Husband.mp3.wav,jive,79.63337893296854,79.0,159.0
Nina_Simone-My_Baby_Just_Cares_For_Me.mp3.wav,jive,119.21457476612547,118.0,119.0
RunawayBabyBrunoMars.mp3.wav,jive,163.9479079827862,164.0,41.0
you_cant_stop_the_beat.mp3.wav,jive,135.69736866643046,170.0,85.0
you_never_can_tell.mp3.wav,jive,156.35273641461998,159.0,157.0
03-fall_out_boy-dance_dance-kzt.mp3.wav,paso_doble,114.46977205153617,114.0,115.0
07- Avicii - Wake Me Up.mp3.wav,paso_doble,123.95025977344349,124.0,219.0
10-panic_at_the_disco-i_write_sins_not_tragedies.mp3.wav,paso_doble,107.37210228865705,170.0,85.0
11 - Temperature - Sean Paul.mp3.wav,paso_doble,124.98067707528212,125.0,62.0
Andy_Fortuna_Productions_-_Matador_Paso_(mp3.pm).mp3.wav,paso_doble,120.16745660826054,120.0,160.0
Call Me When You’re Sober (Evanescence).mp3.wav,paso_doble,100.76440530098459,219.0,44.0
DontStopTheMusic.mp3.wav,paso_doble,122.3907960910299,61.0,123.0
Eye of the Tiger (Survivor).mp3.wav,paso_doble,214.57639114151752,215.0,214.0
Eye Of The Tiger-Various__Raag.Me__.mp3.wav,paso_doble,217.25435165556982,217.0,218.0
Five_Queen_-_We_Will_Rock_You_(mp3.pm).mp3.wav,paso_doble,89.98998256223796,90.0,180.0
Paralyzer (Finger Eleven).mp3.wav,paso_doble,140.99012459895982,53.0,106.0
Queen - _'Another One Bites the Dust_'.mp3.wav,paso_doble,0.0,0.0,220.0
Rihanna- SOS (Rescue Me).mp3.wav,paso_doble,136.99004085321084,137.0,91.0
The All-American Rejects - Dirty Little Secret.mp3.wav,paso_doble,143.74909249310295,144.0,72.0
Thriller (Micheal Jackson).mp3.wav,paso_doble,118.61602412584563,119.0,59.0
287 I'm So Excited.mp3.wav,quickstep,183.70824812542605,185.0,184.0
As Long As I'm Singing Style Of Bobby Darin.mp3.wav,quickstep,144.4723495586506,94.0,211.0
DELADAP - Crazy Swing.mp3.wav,quickstep,124.98067707528212,125.0,62.0
Elvis Presley - Witchcraft (HQ).mp3.wav,quickstep,125.55087029580548,200.0,99.0
Fly or Die - Rock Mafia.mp3.wav,quickstep,139.91655435021914,70.0,140.0
Get Happy.mp3.wav,quickstep,104.5879867189858,102.0,103.0
Gia Farrell Hit Me Up.mp3.wav,quickstep,102.00139092805811,102.0,51.0
Glam (Dimie Cat).mp3.wav,quickstep,54.99293363664533,55.0,220.0
Istanbul (They Might be Giants).mp3.wav,quickstep,114.19317759401666,57.0,114.0
Liza Minnelli_ The Singer.mp3.wav,quickstep,197.88692175899487,201.0,202.0
Nat King Cole - Let's Face the Music and Dance.mp3.wav,quickstep,124.13634269921694,51.0,213.0
Pantaloons by TAPE FIVE (official).mp3.wav,quickstep,69.05862366775176,51.0,52.0
Paolo Nutini - Pencil Full Of Lead - Official video.mp3.wav,quickstep,210.74811017464594,106.0,212.0
Wayne Beckford - Go Mama.mp3.wav,quickstep,110.97469840930927,111.0,220.0
WINGS.mp3.wav,quickstep,125.9803666960993,126.0,63.0
04 Perhaps Perhaps Perhaps.mp3.wav,rumba,102.24418391271138,207.0,56.0
05HaveIToldYouLately.mp3.wav,rumba,124.6509635974304,216.0,219.0
amazed.mp3.wav,rumba,139.4152472553791,140.0,139.0
Breath-FaithHill.mp3.wav,rumba,135.75327013078265,68.0,137.0
chasing_cars.mp3.wav,rumba,206.53685674547984,208.0,207.0
Chris Isaak - Wicked Game.mp3.wav,rumba,112.36970118137596,112.0,113.0
dusty_springfield_-_the_look_of_love.mp3.wav,rumba,113.08046736074044,49.0,50.0
everything_i_do.mp3.wav,rumba,129.88879170311134,131.0,66.0
falling into you.mp3.wav,rumba,106.81732557875316,218.0,219.0
fields of gold.MP3.wav,rumba,138.1920045579717,52.0,210.0
groovy kind of love.mp3.wav,rumba,126.10055820277393,144.0,72.0
love_story.mp3.wav,rumba,119.34362237785177,119.0,120.0
stand-by-me.mp3.wav,rumba,93.6596174035948,60.0,59.0
wonderful_tonight.mp3.wav,rumba,95.88598837745596,96.0,95.0
you_do_something_to_me.mp3.wav,rumba,147.30058185827852,146.0,147.0
Ain't it Funny Jennifer Lopez.mp3.wav,samba,198.71917415408146,100.0,199.0
Beyonce Feat Shakira - Beautiful Liar (Freemasons Radio Vox).mp3.wav,samba,125.9803666960993,126.0,63.0
Close to You (Maxi Priest).mp3.wav,samba,48.148246177056386,48.0,128.0
DESTINY'S CHILD - Survivor.mp3.wav,samba,102.1019546213535,40.0,81.0
DJ_Snake_-_Lean_On_Feat._M_Major_Lazer_(mp3.pm).mp3.wav,samba,189.2382681831215,196.0,49.0
Enrique_Iglessiass_-_Bailamos_(mp3.pm).mp3.wav,samba,99.94231323911161,100.0,198.0
Fifth Harmony - Them Girls Be Like.mp3.wav,samba,47.505108602691074,47.0,95.0
Hey Mama.mp3.wav,samba,50.06501950585175,50.0,198.0
Hipsdon.tlieBamboo.mp3.wav,samba,104.98636540708999,105.0,210.0
Jump in the Line (Harry Belafonte).mp3.wav,samba,145.45949073187973,220.0,219.0
Kaoma_-_Bantu_(mp3.pm).mp3.wav,samba,201.25847047434658,202.0,101.0
Run the Show (Kat DeLuna).mp3.wav,samba,209.94546870942614,210.0,52.0
Sergio_Mendes_Brasil_66_-_Mas_que_nada_introduced_by_Eartha_Kitt_Something_Special_1967[SaveFrom.online].mp3.wav,samba,176.9275658326647,179.0,177.0
Shakira_-_Whenever_Wherever_The_Sun_Comes_Out_Live_at_Europe_(mp3.pm).mp3.wav,samba,146.5175281396613,110.0,220.0
train_-_hey,_soul_sister.mp3.wav,samba,193.9417361869986,194.0,97.0
07_hey sexy lady_shaggy-sean paul-brian-tony gold.mp3.wav,tango,108.32154819501302,108.0,109.0
16 Objection (Afro-Punk version).mp3.wav,tango,179.03452008956035,179.0,90.0
67_83-sonny-and-cher-the-beat-goes-on.mp3.wav,tango,124.08983947367386,125.0,62.0
898 Seven Nation Army.mp3.wav,tango,123.30333994204666,123.0,124.0
bad romance.mp3.wav,tango,119.0001144782246,119.0,218.0
Dance With Me - Debelah Morgan (превод).mp3.wav,tango,92.27542817196786,58.0,57.0
INNA - Cola Song (feat. J Balvin) _ Official Music Video.mp3.wav,tango,66.11316245837506,62.0,125.0
Inna Ft J Balvin - Cola Song [320].mp3.wav,tango,62.56610003353368,62.0,125.0
Marc Anthony - I Need to Know (Video).mp3.wav,tango,91.94548282987765,57.0,58.0
marilyn_monson.mp3.wav,tango,113.29347470689896,189.0,190.0
OneRepublic - Love Runs Out.mp3.wav,tango,119.99307399284311,120.0,121.0
poker_face.mp3.wav,tango,119.0001144782246,119.0,59.0
the_lipstick_on_his_collar.mp3.wav,tango,117.9813538710985,118.0,59.0
toxic.mp3.wav,tango,71.49173224865152,71.0,143.0
wake_me_up_girls_aloud.mp3.wav,tango,124.98067707528212,125.0,62.0
06-golden-brown.mp3.wav,vienneze_waltz,123.8110632795086,125.0,62.0
1955-050 Eartha Kitt - Under The Bridges Of Paris.mp3.wav,vienneze_waltz,107.98557808837974,108.0,216.0
Alcohol (Brad Paisley).mp3.wav,vienneze_waltz,130.65863819587926,96.0,95.0
anewdayhascome.mp3.wav,vienneze_waltz,92.19745828212308,92.0,185.0
Avril Lavigne - I'm With You (Video).mp3.wav,vienneze_waltz,157.18028101929033,51.0,102.0
Breakaway (Kelly Clarkson).mp3.wav,vienneze_waltz,158.98315453691362,53.0,218.0
Bryan_Adams-Have_You_Ever_Really_Loved_A_Woman.mp3.wav,vienneze_waltz,97.43964004981453,97.0,98.0
Can't Help Falling In Love - Michael Buble.mp3.wav,vienneze_waltz,135.00501508560112,218.0,59.0
Caribbean Blue (Enya).mp3.wav,vienneze_waltz,132.639702193967,104.0,213.0
christinaperriathousandyears.mp3.wav,vienneze_waltz,122.47548943803545,93.0,94.0
Daughters (John Mayer).mp3.wav,vienneze_waltz,99.67125539346621,42.0,84.0
Heatwave - Always and Forever.mp3.wav,vienneze_waltz,102.25979172815043,102.0,103.0
jasonmraziwontgiveup.mp3.wav,vienneze_waltz,91.96673449526673,91.0,92.0
Thats-Amore.mp3.wav,vienneze_waltz,107.89750737703703,105.0,218.0
Tom_Jones_Delilah.mp3.wav,vienneze_waltz,126.46205182571819,192.0,127.0
01AtLast_Single_.mp3.wav,waltz,175.24731235973826,219.0,220.0
04-Gravity.mp3.wav,waltz,82.32918095108788,82.0,83.0
12 Can You Feel the Love Tonight (end title) - Elton John.mp3.wav,waltz,126.99617781035656,218.0,219.0
abeautifulmess.mp3.wav,waltz,94.40804411287708,80.0,40.0
aerosmith-idon%5C'twanttomissathing.mp3.wav,waltz,121.5809787966382,121.0,120.0
alicia-keys-unplugged-08-if-i-aint-got-you.mp3.wav,waltz,145.16708229426433,220.0,219.0
christinaperriathousandyears (1).mp3.wav,waltz,122.47548943803545,93.0,94.0
Come-Away-With-Me.mp3.wav,waltz,100.7185679986573,219.0,218.0
I will always love you.mp3.wav,waltz,108.58841378645357,220.0,219.0
marry_me.mp3.wav,waltz,125.00433496988178,184.0,90.0
Martina McBride - Cheap Whiskey.mp3.wav,waltz,148.4429564656985,219.0,220.0
Mary Macgregor Dancing Like Lovers.mp3.wav,waltz,123.62595355000934,61.0,60.0
Suzy Bogguss Heartache.mp3.wav,waltz,130.22888713496448,57.0,171.0
time_of_my_life.mp3.wav,waltz,173.96717462375582,207.0,52.0
Turtles - Happy Together.mp3.wav,waltz,120.38614893370612,120.0,121.0
